{
  "defaultSeverity": "error",
  "extends": ["tslint:latest", "tslint-config-prettier"],
  "jsRules": {
    "no-unused-expression": true
  },
  "rules": {
    "array-type": false, 
    "curly": [true, "ignore-same-line"],
    "interface-name": [true, "never-prefix"],
    "jsx-boolean-value": false,
    "max-classes-per-file": false,
    "newline-per-chained-call": false,
    "no-bitwise": false,
    "no-console": [true, "debug", "info", "warn"],
    "no-empty-interface": false,
    "no-implicit-dependencies": false,
    "no-object-literal-type-assertion": false,
    "no-shadowed-variable": false,
    "no-submodule-imports": false,
    "no-var-requires": false,
    "object-literal-sort-keys": false,
    "quotemark": [true, "single"],
    "member-access": [false],
    "ordered-imports": [false],
    "max-line-length": [true, 150],
    "member-ordering": [false],
    "arrow-parens": false
  },
  "rulesDirectory": []
}

